%YAML 1.1
%TAG !u! tag:unity3d.com,2011:
--- !u!29 &1
OcclusionCullingSettings:
  m_ObjectHideFlags: 0
  serializedVersion: 2
  m_OcclusionBakeSettings:
    smallestOccluder: 5
    smallestHole: 0.25
    backfaceThreshold: 100
  m_SceneGUID: 00000000000000000000000000000000
  m_OcclusionCullingData: {fileID: 0}
--- !u!104 &2
RenderSettings:
  m_ObjectHideFlags: 0
  serializedVersion: 8
  m_Fog: 0
  m_FogColor: {r: 0.08235294, g: 0.08235294, b: 0.08235294, a: 1}
  m_FogMode: 3
  m_FogDensity: 0.1
  m_LinearFogStart: 0
  m_LinearFogEnd: 300
  m_AmbientSkyColor: {r: 0.1401384, g: 0.14640257, b: 0.17647058, a: 1}
  m_AmbientEquatorColor: {r: 0.1401384, g: 0.14640257, b: 0.17647058, a: 1}
  m_AmbientGroundColor: {r: 0.1401384, g: 0.14640257, b: 0.17647058, a: 1}
  m_AmbientIntensity: 1
  m_AmbientMode: 3
  m_SubtractiveShadowColor: {r: 0.42, g: 0.478, b: 0.627, a: 1}
  m_SkyboxMaterial: {fileID: 0}
  m_HaloStrength: 0.5
  m_FlareStrength: 1
  m_FlareFadeSpeed: 3
  m_HaloTexture: {fileID: 0}
  m_SpotCookie: {fileID: 10001, guid: 0000000000000000e000000000000000, type: 0}
  m_DefaultReflectionMode: 0
  m_DefaultReflectionResolution: 128
  m_ReflectionBounces: 1
  m_ReflectionIntensity: 1
  m_CustomReflection: {fileID: 0}
  m_Sun: {fileID: 0}
  m_IndirectSpecularColor: {r: 0, g: 0, b: 0, a: 1}
--- !u!157 &4
LightmapSettings:
  m_ObjectHideFlags: 0
  serializedVersion: 11
  m_GIWorkflowMode: 1
  m_GISettings:
    serializedVersion: 2
    m_BounceScale: 1
    m_IndirectOutputScale: 1
    m_AlbedoBoost: 1
    m_TemporalCoherenceThreshold: 1
    m_EnvironmentLightingMode: 0
    m_EnableBakedLightmaps: 1
    m_EnableRealtimeLightmaps: 0
  m_LightmapEditorSettings:
    serializedVersion: 9
    m_Resolution: 1
    m_BakeResolution: 50
    m_TextureWidth: 1024
    m_TextureHeight: 1024
    m_AO: 0
    m_AOMaxDistance: 1
    m_CompAOExponent: 0
    m_CompAOExponentDirect: 0
    m_Padding: 2
    m_LightmapParameters: {fileID: 0}
    m_LightmapsBakeMode: 1
    m_TextureCompression: 0
    m_FinalGather: 0
    m_FinalGatherFiltering: 1
    m_FinalGatherRayCount: 1024
    m_ReflectionCompression: 2
    m_MixedBakeMode: 1
    m_BakeBackend: 0
    m_PVRSampling: 1
    m_PVRDirectSampleCount: 32
    m_PVRSampleCount: 500
    m_PVRBounces: 2
    m_PVRFilterTypeDirect: 0
    m_PVRFilterTypeIndirect: 0
    m_PVRFilterTypeAO: 0
    m_PVRFilteringMode: 0
    m_PVRCulling: 1
    m_PVRFilteringGaussRadiusDirect: 1
    m_PVRFilteringGaussRadiusIndirect: 5
    m_PVRFilteringGaussRadiusAO: 2
    m_PVRFilteringAtrousPositionSigmaDirect: 0.5
    m_PVRFilteringAtrousPositionSigmaIndirect: 2
    m_PVRFilteringAtrousPositionSigmaAO: 1
    m_ShowResolutionOverlay: 1
  m_LightingDataAsset: {fileID: 0}
  m_UseShadowmask: 0
--- !u!196 &5
NavMeshSettings:
  serializedVersion: 2
  m_ObjectHideFlags: 0
  m_BuildSettings:
    serializedVersion: 2
    agentTypeID: 0
    agentRadius: 0.5
    agentHeight: 2
    agentSlope: 45
    agentClimb: 0.4
    ledgeDropHeight: 0
    maxJumpAcrossDistance: 0
    minRegionArea: 2
    manualCellSize: 0
    cellSize: 0.16666666
    manualTileSize: 0
    tileSize: 256
    accuratePlacement: 0
    debug:
      m_Flags: 0
  m_NavMeshData: {fileID: 0}
--- !u!1 &556165500
GameObject:
  m_ObjectHideFlags: 0
  m_PrefabParentObject: {fileID: 0}
  m_PrefabInternal: {fileID: 0}
  serializedVersion: 5
  m_Component:
  - component: {fileID: 556165501}
  m_Layer: 0
  m_Name: spawn_nuke
  m_TagString: Untagged
  m_Icon: {fileID: 0}
  m_NavMeshLayer: 0
  m_StaticEditorFlags: 0
  m_IsActive: 1
--- !u!4 &556165501
Transform:
  m_ObjectHideFlags: 0
  m_PrefabParentObject: {fileID: 0}
  m_PrefabInternal: {fileID: 0}
  m_GameObject: {fileID: 556165500}
  m_LocalRotation: {x: 0.7071068, y: 0, z: 0, w: -0.7071068}
  m_LocalPosition: {x: -0.16394043, y: 2.7161684, z: -10.288818}
  m_LocalScale: {x: 1, y: 1, z: 1}
  m_Children: []
  m_Father: {fileID: 0}
  m_RootOrder: 11
  m_LocalEulerAnglesHint: {x: 0, y: 0, z: 0}
--- !u!1 &628000105
GameObject:
  m_ObjectHideFlags: 0
  m_PrefabParentObject: {fileID: 0}
  m_PrefabInternal: {fileID: 0}
  serializedVersion: 5
  m_Component:
  - component: {fileID: 628000109}
  - component: {fileID: 628000108}
  - component: {fileID: 628000106}
  - component: {fileID: 628000107}
  m_Layer: 0
  m_Name: Cylinder
  m_TagString: Untagged
  m_Icon: {fileID: 0}
  m_NavMeshLayer: 0
  m_StaticEditorFlags: 0
  m_IsActive: 1
--- !u!23 &628000106
MeshRenderer:
  m_ObjectHideFlags: 0
  m_PrefabParentObject: {fileID: 0}
  m_PrefabInternal: {fileID: 0}
  m_GameObject: {fileID: 628000105}
  m_Enabled: 1
  m_CastShadows: 1
  m_ReceiveShadows: 1
  m_DynamicOccludee: 1
  m_MotionVectors: 1
  m_LightProbeUsage: 0
  m_ReflectionProbeUsage: 1
  m_Materials:
  - {fileID: 2100000, guid: 817ea4207dafc5f4f997cfeb15783fca, type: 2}
  m_StaticBatchInfo:
    firstSubMesh: 0
    subMeshCount: 0
  m_StaticBatchRoot: {fileID: 0}
  m_ProbeAnchor: {fileID: 0}
  m_LightProbeVolumeOverride: {fileID: 0}
  m_ScaleInLightmap: 1
  m_PreserveUVs: 0
  m_IgnoreNormalsForChartDetection: 0
  m_ImportantGI: 0
  m_StitchLightmapSeams: 0
  m_SelectedEditorRenderState: 3
  m_MinimumChartSize: 4
  m_AutoUVMaxDistance: 0.5
  m_AutoUVMaxAngle: 89
  m_LightmapParameters: {fileID: 0}
  m_SortingLayerID: 0
  m_SortingLayer: 0
  m_SortingOrder: 0
--- !u!65 &628000107
BoxCollider:
  m_ObjectHideFlags: 0
  m_PrefabParentObject: {fileID: 0}
  m_PrefabInternal: {fileID: 0}
  m_GameObject: {fileID: 628000105}
  m_Material: {fileID: 0}
  m_IsTrigger: 0
  m_Enabled: 1
  serializedVersion: 2
  m_Size: {x: 1.0000001, y: 2, z: 1.0000002}
  m_Center: {x: 0.000000059604645, y: 0.1, z: -0.00000008940697}
--- !u!33 &628000108
MeshFilter:
  m_ObjectHideFlags: 0
  m_PrefabParentObject: {fileID: 0}
  m_PrefabInternal: {fileID: 0}
  m_GameObject: {fileID: 628000105}
  m_Mesh: {fileID: 10206, guid: 0000000000000000e000000000000000, type: 0}
--- !u!4 &628000109
Transform:
  m_ObjectHideFlags: 0
  m_PrefabParentObject: {fileID: 0}
  m_PrefabInternal: {fileID: 0}
  m_GameObject: {fileID: 628000105}
  m_LocalRotation: {x: 0, y: 0, z: 0, w: 1}
  m_LocalPosition: {x: -0.08855724, y: 2.705622, z: -10.473978}
  m_LocalScale: {x: 50, y: 0.05, z: 50}
  m_Children: []
  m_Father: {fileID: 0}
  m_RootOrder: 0
  m_LocalEulerAnglesHint: {x: 0, y: 0, z: 0}
--- !u!1 &722831831
GameObject:
  m_ObjectHideFlags: 0
  m_PrefabParentObject: {fileID: 0}
  m_PrefabInternal: {fileID: 0}
  serializedVersion: 5
  m_Component:
  - component: {fileID: 722831832}
  m_Layer: 0
  m_Name: spawn
  m_TagString: Untagged
  m_Icon: {fileID: 0}
  m_NavMeshLayer: 0
  m_StaticEditorFlags: 0
  m_IsActive: 1
--- !u!4 &722831832
Transform:
  m_ObjectHideFlags: 0
  m_PrefabParentObject: {fileID: 0}
  m_PrefabInternal: {fileID: 0}
  m_GameObject: {fileID: 722831831}
  m_LocalRotation: {x: 0.7071068, y: 0, z: 0, w: -0.7071068}
  m_LocalPosition: {x: -0.16394043, y: 2.8965693, z: -12.810656}
  m_LocalScale: {x: 1, y: 1, z: 1}
  m_Children: []
  m_Father: {fileID: 0}
  m_RootOrder: 10
  m_LocalEulerAnglesHint: {x: 0, y: 0, z: 0}
--- !u!1 &768229124
GameObject:
  m_ObjectHideFlags: 0
  m_PrefabParentObject: {fileID: 0}
  m_PrefabInternal: {fileID: 0}
  serializedVersion: 5
  m_Component:
  - component: {fileID: 768229126}
  - component: {fileID: 768229125}
  m_Layer: 0
  m_Name: GameObject
  m_TagString: Untagged
  m_Icon: {fileID: 0}
  m_NavMeshLayer: 0
  m_StaticEditorFlags: 0
  m_IsActive: 1
--- !u!114 &768229125
MonoBehaviour:
  m_ObjectHideFlags: 0
  m_PrefabParentObject: {fileID: 0}
  m_PrefabInternal: {fileID: 0}
  m_GameObject: {fileID: 768229124}
  m_Enabled: 1
  m_EditorHideFlags: 0
  m_Script: {fileID: 11500000, guid: 1251b5995bd2c1b4d8d3290f596ab10b, type: 3}
  m_Name: 
  m_EditorClassIdentifier: 
  _timeSpeed: 1
--- !u!4 &768229126
Transform:
  m_ObjectHideFlags: 0
  m_PrefabParentObject: {fileID: 0}
  m_PrefabInternal: {fileID: 0}
  m_GameObject: {fileID: 768229124}
  m_LocalRotation: {x: 0, y: 0, z: 0, w: 1}
  m_LocalPosition: {x: -4.8739624, y: -1.9200163, z: -9.561432}
  m_LocalScale: {x: 1, y: 1, z: 1}
  m_Children: []
  m_Father: {fileID: 0}
  m_RootOrder: 13
  m_LocalEulerAnglesHint: {x: 0, y: 0, z: 0}
--- !u!1 &783839689
GameObject:
  m_ObjectHideFlags: 0
  m_PrefabParentObject: {fileID: 0}
  m_PrefabInternal: {fileID: 0}
  serializedVersion: 5
  m_Component:
  - component: {fileID: 783839691}
  - component: {fileID: 783839690}
  m_Layer: 0
  m_Name: Directional light
  m_TagString: Untagged
  m_Icon: {fileID: 0}
  m_NavMeshLayer: 0
  m_StaticEditorFlags: 0
  m_IsActive: 1
--- !u!108 &783839690
Light:
  m_ObjectHideFlags: 0
  m_PrefabParentObject: {fileID: 0}
  m_PrefabInternal: {fileID: 0}
  m_GameObject: {fileID: 783839689}
  m_Enabled: 1
  serializedVersion: 8
  m_Type: 1
  m_Color: {r: 0.67165875, g: 0.67802316, b: 0.74264705, a: 1}
  m_Intensity: 0.4
  m_Range: 10
  m_SpotAngle: 30
  m_CookieSize: 10
  m_Shadows:
    m_Type: 0
    m_Resolution: -1
    m_CustomResolution: -1
    m_Strength: 1
    m_Bias: 0.05
    m_NormalBias: 0.4
    m_NearPlane: 0.2
  m_Cookie: {fileID: 0}
  m_DrawHalo: 0
  m_Flare: {fileID: 0}
  m_RenderMode: 0
  m_CullingMask:
    serializedVersion: 2
    m_Bits: 4294967295
  m_Lightmapping: 1
  m_AreaSize: {x: 1, y: 1}
  m_BounceIntensity: 1
  m_ColorTemperature: 6570
  m_UseColorTemperature: 0
  m_ShadowRadius: 0
  m_ShadowAngle: 0
--- !u!4 &783839691
Transform:
  m_ObjectHideFlags: 0
  m_PrefabParentObject: {fileID: 0}
  m_PrefabInternal: {fileID: 0}
  m_GameObject: {fileID: 783839689}
  m_LocalRotation: {x: 0.40821794, y: -0.23456973, z: 0.10938166, w: 0.8754261}
  m_LocalPosition: {x: 0.8223336, y: 5.967904, z: -12.618349}
  m_LocalScale: {x: 1, y: 1, z: 1}
  m_Children: []
  m_Father: {fileID: 0}
  m_RootOrder: 6
  m_LocalEulerAnglesHint: {x: 0, y: 0, z: 0}
--- !u!1 &791836446
GameObject:
  m_ObjectHideFlags: 0
  m_PrefabParentObject: {fileID: 0}
  m_PrefabInternal: {fileID: 0}
  serializedVersion: 5
  m_Component:
  - component: {fileID: 791836447}
  m_Layer: 0
  m_Name: space_spawn
  m_TagString: Untagged
  m_Icon: {fileID: 0}
  m_NavMeshLayer: 0
  m_StaticEditorFlags: 0
  m_IsActive: 1
--- !u!4 &791836447
Transform:
  m_ObjectHideFlags: 0
  m_PrefabParentObject: {fileID: 0}
  m_PrefabInternal: {fileID: 0}
  m_GameObject: {fileID: 791836446}
  m_LocalRotation: {x: 0.7071068, y: 0, z: 0, w: -0.7071068}
  m_LocalPosition: {x: -0.16394043, y: 3.6743805, z: -12.810656}
  m_LocalScale: {x: 1, y: 1, z: 1}
  m_Children: []
  m_Father: {fileID: 0}
  m_RootOrder: 9
  m_LocalEulerAnglesHint: {x: 0, y: 0, z: 0}
--- !u!1001 &812607747
Prefab:
  m_ObjectHideFlags: 0
  serializedVersion: 2
  m_Modification:
    m_TransformParent: {fileID: 2070685345}
    m_Modifications:
    - target: {fileID: 400000, guid: 32a7057481c41b84496d33b496080be1, type: 2}
      propertyPath: m_LocalPosition.x
      value: 0
      objectReference: {fileID: 0}
    - target: {fileID: 400000, guid: 32a7057481c41b84496d33b496080be1, type: 2}
      propertyPath: m_LocalPosition.y
      value: 0
      objectReference: {fileID: 0}
    - target: {fileID: 400000, guid: 32a7057481c41b84496d33b496080be1, type: 2}
      propertyPath: m_LocalPosition.z
      value: 0
      objectReference: {fileID: 0}
    - target: {fileID: 400000, guid: 32a7057481c41b84496d33b496080be1, type: 2}
      propertyPath: m_LocalRotation.x
      value: -0
      objectReference: {fileID: 0}
    - target: {fileID: 400000, guid: 32a7057481c41b84496d33b496080be1, type: 2}
      propertyPath: m_LocalRotation.y
      value: -0
      objectReference: {fileID: 0}
    - target: {fileID: 400000, guid: 32a7057481c41b84496d33b496080be1, type: 2}
      propertyPath: m_LocalRotation.z
      value: -0
      objectReference: {fileID: 0}
    - target: {fileID: 400000, guid: 32a7057481c41b84496d33b496080be1, type: 2}
      propertyPath: m_LocalRotation.w
      value: 1
      objectReference: {fileID: 0}
    - target: {fileID: 400000, guid: 32a7057481c41b84496d33b496080be1, type: 2}
      propertyPath: m_RootOrder
      value: 0
      objectReference: {fileID: 0}
    - target: {fileID: 19800000, guid: 32a7057481c41b84496d33b496080be1, type: 2}
      propertyPath: looping
      value: 1
      objectReference: {fileID: 0}
    - target: {fileID: 19800000, guid: 32a7057481c41b84496d33b496080be1, type: 2}
      propertyPath: randomSeed
      value: 0
      objectReference: {fileID: 0}
    - target: {fileID: 19800004, guid: 32a7057481c41b84496d33b496080be1, type: 2}
      propertyPath: randomSeed
      value: -1101314294
      objectReference: {fileID: 0}
    - target: {fileID: 19800004, guid: 32a7057481c41b84496d33b496080be1, type: 2}
      propertyPath: InitialModule.startSizeY.minMaxState
      value: 3
      objectReference: {fileID: 0}
    - target: {fileID: 19800004, guid: 32a7057481c41b84496d33b496080be1, type: 2}
      propertyPath: InitialModule.startSizeZ.minMaxState
      value: 3
      objectReference: {fileID: 0}
    - target: {fileID: 19800004, guid: 32a7057481c41b84496d33b496080be1, type: 2}
      propertyPath: InitialModule.startRotationX.minMaxState
      value: 3
      objectReference: {fileID: 0}
    - target: {fileID: 19800004, guid: 32a7057481c41b84496d33b496080be1, type: 2}
      propertyPath: InitialModule.startRotationY.minMaxState
      value: 3
      objectReference: {fileID: 0}
    - target: {fileID: 19800002, guid: 32a7057481c41b84496d33b496080be1, type: 2}
      propertyPath: randomSeed
      value: -68914025
      objectReference: {fileID: 0}
    - target: {fileID: 19800002, guid: 32a7057481c41b84496d33b496080be1, type: 2}
      propertyPath: InitialModule.startSizeY.minMaxState
      value: 3
      objectReference: {fileID: 0}
    - target: {fileID: 19800002, guid: 32a7057481c41b84496d33b496080be1, type: 2}
      propertyPath: InitialModule.startSizeZ.minMaxState
      value: 3
      objectReference: {fileID: 0}
    - target: {fileID: 19800002, guid: 32a7057481c41b84496d33b496080be1, type: 2}
      propertyPath: InitialModule.startRotationX.minMaxState
      value: 3
      objectReference: {fileID: 0}
    - target: {fileID: 19800002, guid: 32a7057481c41b84496d33b496080be1, type: 2}
      propertyPath: InitialModule.startRotationY.minMaxState
      value: 3
      objectReference: {fileID: 0}
    - target: {fileID: 19800006, guid: 32a7057481c41b84496d33b496080be1, type: 2}
      propertyPath: randomSeed
      value: -1124348780
      objectReference: {fileID: 0}
    - target: {fileID: 19800006, guid: 32a7057481c41b84496d33b496080be1, type: 2}
      propertyPath: InitialModule.startSizeY.minMaxState
      value: 3
      objectReference: {fileID: 0}
    - target: {fileID: 19800006, guid: 32a7057481c41b84496d33b496080be1, type: 2}
      propertyPath: InitialModule.startSizeZ.minMaxState
      value: 3
      objectReference: {fileID: 0}
    - target: {fileID: 19800006, guid: 32a7057481c41b84496d33b496080be1, type: 2}
      propertyPath: InitialModule.startRotationX.minMaxState
      value: 3
      objectReference: {fileID: 0}
    - target: {fileID: 19800006, guid: 32a7057481c41b84496d33b496080be1, type: 2}
      propertyPath: InitialModule.startRotationY.minMaxState
      value: 3
      objectReference: {fileID: 0}
    - target: {fileID: 19800006, guid: 32a7057481c41b84496d33b496080be1, type: 2}
      propertyPath: looping
      value: 1
      objectReference: {fileID: 0}
    - target: {fileID: 19800002, guid: 32a7057481c41b84496d33b496080be1, type: 2}
      propertyPath: looping
      value: 1
      objectReference: {fileID: 0}
    - target: {fileID: 19800004, guid: 32a7057481c41b84496d33b496080be1, type: 2}
      propertyPath: looping
      value: 1
      objectReference: {fileID: 0}
    - target: {fileID: 19800004, guid: 32a7057481c41b84496d33b496080be1, type: 2}
      propertyPath: ShapeModule.type
      value: 5
      objectReference: {fileID: 0}
    - target: {fileID: 19800004, guid: 32a7057481c41b84496d33b496080be1, type: 2}
      propertyPath: ShapeModule.m_Scale.x
      value: 1
      objectReference: {fileID: 0}
    - target: {fileID: 19800002, guid: 32a7057481c41b84496d33b496080be1, type: 2}
      propertyPath: ShapeModule.m_Scale.x
      value: 1
      objectReference: {fileID: 0}
    - target: {fileID: 19800006, guid: 32a7057481c41b84496d33b496080be1, type: 2}
      propertyPath: ShapeModule.m_Scale.x
      value: 1
      objectReference: {fileID: 0}
    - target: {fileID: 400000, guid: 32a7057481c41b84496d33b496080be1, type: 2}
      propertyPath: m_LocalScale.x
      value: 0.2
      objectReference: {fileID: 0}
    - target: {fileID: 400000, guid: 32a7057481c41b84496d33b496080be1, type: 2}
      propertyPath: m_LocalScale.y
      value: 0.2
      objectReference: {fileID: 0}
    - target: {fileID: 400000, guid: 32a7057481c41b84496d33b496080be1, type: 2}
      propertyPath: m_LocalScale.z
      value: 0.2
      objectReference: {fileID: 0}
    - target: {fileID: 19800004, guid: 32a7057481c41b84496d33b496080be1, type: 2}
      propertyPath: scalingMode
      value: 2
      objectReference: {fileID: 0}
    - target: {fileID: 19800006, guid: 32a7057481c41b84496d33b496080be1, type: 2}
      propertyPath: scalingMode
      value: 2
      objectReference: {fileID: 0}
    - target: {fileID: 19800002, guid: 32a7057481c41b84496d33b496080be1, type: 2}
      propertyPath: scalingMode
      value: 2
      objectReference: {fileID: 0}
    - target: {fileID: 19800004, guid: 32a7057481c41b84496d33b496080be1, type: 2}
      propertyPath: ShapeModule.radiusThickness
      value: 1
      objectReference: {fileID: 0}
    - target: {fileID: 19800004, guid: 32a7057481c41b84496d33b496080be1, type: 2}
      propertyPath: ShapeModule.radiusThickness
      value: 1.0000
      objectReference: {fileID: 0}
    - target: {fileID: 19800004, guid: 32a7057481c41b84496d33b496080be1, type: 2}
      propertyPath: ShapeModule.radiusThickness
      value: 1.0000
      objectReference: {fileID: 0}
    m_RemovedComponents:
    - {fileID: 19900000, guid: 32a7057481c41b84496d33b496080be1, type: 2}
    - {fileID: 19800000, guid: 32a7057481c41b84496d33b496080be1, type: 2}
  m_ParentPrefab: {fileID: 100100000, guid: 32a7057481c41b84496d33b496080be1, type: 2}
  m_IsPrefabParent: 0
--- !u!1001 &1112685919
Prefab:
  m_ObjectHideFlags: 0
  serializedVersion: 2
  m_Modification:
    m_TransformParent: {fileID: 0}
    m_Modifications:
    - target: {fileID: 400000, guid: 63e444468e7931741aa884fdfaa4b9bf, type: 2}
      propertyPath: m_LocalPosition.x
      value: -0.8494377
      objectReference: {fileID: 0}
    - target: {fileID: 400000, guid: 63e444468e7931741aa884fdfaa4b9bf, type: 2}
      propertyPath: m_LocalPosition.y
      value: 2.760622
      objectReference: {fileID: 0}
    - target: {fileID: 400000, guid: 63e444468e7931741aa884fdfaa4b9bf, type: 2}
      propertyPath: m_LocalPosition.z
      value: -13.701601
      objectReference: {fileID: 0}
    - target: {fileID: 400000, guid: 63e444468e7931741aa884fdfaa4b9bf, type: 2}
      propertyPath: m_LocalRotation.x
      value: 0
      objectReference: {fileID: 0}
    - target: {fileID: 400000, guid: 63e444468e7931741aa884fdfaa4b9bf, type: 2}
      propertyPath: m_LocalRotation.y
      value: 0
      objectReference: {fileID: 0}
    - target: {fileID: 400000, guid: 63e444468e7931741aa884fdfaa4b9bf, type: 2}
      propertyPath: m_LocalRotation.z
      value: 0
      objectReference: {fileID: 0}
    - target: {fileID: 400000, guid: 63e444468e7931741aa884fdfaa4b9bf, type: 2}
      propertyPath: m_LocalRotation.w
      value: 1
      objectReference: {fileID: 0}
    - target: {fileID: 400000, guid: 63e444468e7931741aa884fdfaa4b9bf, type: 2}
      propertyPath: m_RootOrder
      value: 3
      objectReference: {fileID: 0}
    - target: {fileID: 19800002, guid: 63e444468e7931741aa884fdfaa4b9bf, type: 2}
      propertyPath: randomSeed
      value: -219836076
      objectReference: {fileID: 0}
    - target: {fileID: 19800002, guid: 63e444468e7931741aa884fdfaa4b9bf, type: 2}
      propertyPath: InitialModule.startSizeY.minMaxState
      value: 3
      objectReference: {fileID: 0}
    - target: {fileID: 19800002, guid: 63e444468e7931741aa884fdfaa4b9bf, type: 2}
      propertyPath: InitialModule.startSizeZ.minMaxState
      value: 3
      objectReference: {fileID: 0}
    - target: {fileID: 19800002, guid: 63e444468e7931741aa884fdfaa4b9bf, type: 2}
      propertyPath: InitialModule.startRotationX.minMaxState
      value: 3
      objectReference: {fileID: 0}
    - target: {fileID: 19800002, guid: 63e444468e7931741aa884fdfaa4b9bf, type: 2}
      propertyPath: InitialModule.startRotationY.minMaxState
      value: 3
      objectReference: {fileID: 0}
    - target: {fileID: 400002, guid: 63e444468e7931741aa884fdfaa4b9bf, type: 2}
      propertyPath: m_LocalPosition.z
      value: -0.04
      objectReference: {fileID: 0}
    - target: {fileID: 400002, guid: 63e444468e7931741aa884fdfaa4b9bf, type: 2}
      propertyPath: m_LocalPosition.x
      value: 2.44
      objectReference: {fileID: 0}
    - target: {fileID: 19800008, guid: 63e444468e7931741aa884fdfaa4b9bf, type: 2}
      propertyPath: randomSeed
      value: -186632095
      objectReference: {fileID: 0}
    - target: {fileID: 19800008, guid: 63e444468e7931741aa884fdfaa4b9bf, type: 2}
      propertyPath: InitialModule.startSizeY.minMaxState
      value: 3
      objectReference: {fileID: 0}
    - target: {fileID: 19800008, guid: 63e444468e7931741aa884fdfaa4b9bf, type: 2}
      propertyPath: InitialModule.startSizeZ.minMaxState
      value: 3
      objectReference: {fileID: 0}
    - target: {fileID: 19800008, guid: 63e444468e7931741aa884fdfaa4b9bf, type: 2}
      propertyPath: InitialModule.startRotationX.minMaxState
      value: 3
      objectReference: {fileID: 0}
    - target: {fileID: 19800008, guid: 63e444468e7931741aa884fdfaa4b9bf, type: 2}
      propertyPath: InitialModule.startRotationY.minMaxState
      value: 3
      objectReference: {fileID: 0}
    - target: {fileID: 19800008, guid: 63e444468e7931741aa884fdfaa4b9bf, type: 2}
      propertyPath: looping
      value: 1
      objectReference: {fileID: 0}
    - target: {fileID: 19800002, guid: 63e444468e7931741aa884fdfaa4b9bf, type: 2}
      propertyPath: looping
      value: 1
      objectReference: {fileID: 0}
    - target: {fileID: 19800004, guid: 63e444468e7931741aa884fdfaa4b9bf, type: 2}
      propertyPath: randomSeed
      value: 1382460279
      objectReference: {fileID: 0}
    - target: {fileID: 19800004, guid: 63e444468e7931741aa884fdfaa4b9bf, type: 2}
      propertyPath: InitialModule.startSizeY.minMaxState
      value: 3
      objectReference: {fileID: 0}
    - target: {fileID: 19800004, guid: 63e444468e7931741aa884fdfaa4b9bf, type: 2}
      propertyPath: InitialModule.startSizeZ.minMaxState
      value: 3
      objectReference: {fileID: 0}
    - target: {fileID: 19800004, guid: 63e444468e7931741aa884fdfaa4b9bf, type: 2}
      propertyPath: InitialModule.startRotationX.minMaxState
      value: 3
      objectReference: {fileID: 0}
    - target: {fileID: 19800004, guid: 63e444468e7931741aa884fdfaa4b9bf, type: 2}
      propertyPath: InitialModule.startRotationY.minMaxState
      value: 3
      objectReference: {fileID: 0}
    - target: {fileID: 19800004, guid: 63e444468e7931741aa884fdfaa4b9bf, type: 2}
      propertyPath: looping
      value: 1
      objectReference: {fileID: 0}
    - target: {fileID: 400004, guid: 63e444468e7931741aa884fdfaa4b9bf, type: 2}
      propertyPath: m_LocalPosition.x
      value: -6.86
      objectReference: {fileID: 0}
    m_RemovedComponents: []
  m_ParentPrefab: {fileID: 100100000, guid: 63e444468e7931741aa884fdfaa4b9bf, type: 2}
  m_IsPrefabParent: 0
--- !u!1 &1132892060
GameObject:
  m_ObjectHideFlags: 0
  m_PrefabParentObject: {fileID: 0}
  m_PrefabInternal: {fileID: 0}
  serializedVersion: 5
  m_Component:
  - component: {fileID: 1132892061}
  m_Layer: 0
  m_Name: spawn_smoke
  m_TagString: Untagged
  m_Icon: {fileID: 0}
  m_NavMeshLayer: 0
  m_StaticEditorFlags: 0
  m_IsActive: 1
--- !u!4 &1132892061
Transform:
  m_ObjectHideFlags: 0
  m_PrefabParentObject: {fileID: 0}
  m_PrefabInternal: {fileID: 0}
  m_GameObject: {fileID: 1132892060}
  m_LocalRotation: {x: 0.7071068, y: 0, z: 0, w: -0.7071068}
  m_LocalPosition: {x: -0.16394043, y: 3.9868383, z: -6.8106527}
  m_LocalScale: {x: 1, y: 1, z: 1}
  m_Children: []
  m_Father: {fileID: 0}
  m_RootOrder: 12
  m_LocalEulerAnglesHint: {x: 0, y: 0, z: 0}
--- !u!1001 &1602474618
Prefab:
  m_ObjectHideFlags: 0
  serializedVersion: 2
  m_Modification:
    m_TransformParent: {fileID: 0}
    m_Modifications:
    - target: {fileID: 400000, guid: b279075103c36c742bb99698b6da01f9, type: 2}
      propertyPath: m_LocalPosition.x
      value: 0.32761908
      objectReference: {fileID: 0}
    - target: {fileID: 400000, guid: b279075103c36c742bb99698b6da01f9, type: 2}
      propertyPath: m_LocalPosition.y
      value: 2.760622
      objectReference: {fileID: 0}
    - target: {fileID: 400000, guid: b279075103c36c742bb99698b6da01f9, type: 2}
      propertyPath: m_LocalPosition.z
      value: -16.73
      objectReference: {fileID: 0}
    - target: {fileID: 400000, guid: b279075103c36c742bb99698b6da01f9, type: 2}
      propertyPath: m_LocalRotation.x
      value: 0
      objectReference: {fileID: 0}
    - target: {fileID: 400000, guid: b279075103c36c742bb99698b6da01f9, type: 2}
      propertyPath: m_LocalRotation.y
      value: 0
      objectReference: {fileID: 0}
    - target: {fileID: 400000, guid: b279075103c36c742bb99698b6da01f9, type: 2}
      propertyPath: m_LocalRotation.z
      value: 0
      objectReference: {fileID: 0}
    - target: {fileID: 400000, guid: b279075103c36c742bb99698b6da01f9, type: 2}
      propertyPath: m_LocalRotation.w
      value: 1
      objectReference: {fileID: 0}
    - target: {fileID: 400000, guid: b279075103c36c742bb99698b6da01f9, type: 2}
      propertyPath: m_RootOrder
      value: 2
      objectReference: {fileID: 0}
    m_RemovedComponents: []
  m_ParentPrefab: {fileID: 100100000, guid: b279075103c36c742bb99698b6da01f9, type: 2}
  m_IsPrefabParent: 0
--- !u!1 &1719767230
GameObject:
  m_ObjectHideFlags: 0
  m_PrefabParentObject: {fileID: 0}
  m_PrefabInternal: {fileID: 0}
  serializedVersion: 5
  m_Component:
  - component: {fileID: 1719767231}
  m_Layer: 0
  m_Name: dir_spawn
  m_TagString: Untagged
  m_Icon: {fileID: 0}
  m_NavMeshLayer: 0
  m_StaticEditorFlags: 0
  m_IsActive: 1
--- !u!4 &1719767231
Transform:
  m_ObjectHideFlags: 0
  m_PrefabParentObject: {fileID: 0}
  m_PrefabInternal: {fileID: 0}
  m_GameObject: {fileID: 1719767230}
  m_LocalRotation: {x: 0.0861746, y: -0.70183617, z: -0.0861746, w: -0.70183617}
  m_LocalPosition: {x: -0.16394043, y: 3.028176, z: -12.810656}
  m_LocalScale: {x: 1, y: 1, z: 1}
  m_Children: []
  m_Father: {fileID: 0}
  m_RootOrder: 5
  m_LocalEulerAnglesHint: {x: 0, y: 0, z: 0}
--- !u!1 &1778811836
GameObject:
  m_ObjectHideFlags: 0
  m_PrefabParentObject: {fileID: 0}
  m_PrefabInternal: {fileID: 0}
  serializedVersion: 5
  m_Component:
  - component: {fileID: 1778811841}
  - component: {fileID: 1778811840}
  - component: {fileID: 1778811839}
  - component: {fileID: 1778811838}
  - component: {fileID: 1778811837}
  - component: {fileID: 1778811842}
  - component: {fileID: 1778811843}
  m_Layer: 0
  m_Name: Main Camera
  m_TagString: MainCamera
  m_Icon: {fileID: 0}
  m_NavMeshLayer: 0
  m_StaticEditorFlags: 0
  m_IsActive: 1
--- !u!81 &1778811837
AudioListener:
  m_ObjectHideFlags: 0
  m_PrefabParentObject: {fileID: 0}
  m_PrefabInternal: {fileID: 0}
  m_GameObject: {fileID: 1778811836}
  m_Enabled: 1
--- !u!124 &1778811838
Behaviour:
  m_ObjectHideFlags: 0
  m_PrefabParentObject: {fileID: 0}
  m_PrefabInternal: {fileID: 0}
  m_GameObject: {fileID: 1778811836}
  m_Enabled: 1
--- !u!92 &1778811839
Behaviour:
  m_ObjectHideFlags: 0
  m_PrefabParentObject: {fileID: 0}
  m_PrefabInternal: {fileID: 0}
  m_GameObject: {fileID: 1778811836}
  m_Enabled: 1
--- !u!20 &1778811840
Camera:
  m_ObjectHideFlags: 0
  m_PrefabParentObject: {fileID: 0}
  m_PrefabInternal: {fileID: 0}
  m_GameObject: {fileID: 1778811836}
  m_Enabled: 1
  serializedVersion: 2
  m_ClearFlags: 1
  m_BackGroundColor: {r: 0.08088237, g: 0.08088237, b: 0.08088237, a: 0.019607844}
  m_NormalizedViewPortRect:
    serializedVersion: 2
    x: 0
    y: 0
    width: 1
    height: 1
  near clip plane: 0.01
  far clip plane: 1000
  field of view: 60
  orthographic: 0
  orthographic size: 100
  m_Depth: -1
  m_CullingMask:
    serializedVersion: 2
    m_Bits: 4294967295
  m_RenderingPath: -1
  m_TargetTexture: {fileID: 0}
  m_TargetDisplay: 0
  m_TargetEye: 3
  m_HDR: 0
  m_AllowMSAA: 1
  m_AllowDynamicResolution: 0
  m_ForceIntoRT: 0
  m_OcclusionCulling: 1
  m_StereoConvergence: 10
  m_StereoSeparation: 0.022
--- !u!4 &1778811841
Transform:
  m_ObjectHideFlags: 0
  m_PrefabParentObject: {fileID: 0}
  m_PrefabInternal: {fileID: 0}
  m_GameObject: {fileID: 1778811836}
  m_LocalRotation: {x: 0.08428749, y: 0, z: 0, w: 0.99644154}
  m_LocalPosition: {x: -0.040281534, y: 4.151119, z: -15.514886}
  m_LocalScale: {x: 1, y: 1, z: 1}
  m_Children: []
  m_Father: {fileID: 0}
  m_RootOrder: 7
  m_LocalEulerAnglesHint: {x: 0, y: 0, z: 0}
--- !u!114 &1778811842
MonoBehaviour:
  m_ObjectHideFlags: 0
  m_PrefabParentObject: {fileID: 0}
  m_PrefabInternal: {fileID: 0}
  m_GameObject: {fileID: 1778811836}
  m_Enabled: 1
  m_EditorHideFlags: 0
  m_Script: {fileID: 11500000, guid: 8e06c56491317804a9bcaffc590e5a32, type: 3}
  m_Name: 
  m_EditorClassIdentifier: 
  gr_explosion: {fileID: 100012, guid: 745b40986ad3f1042aea0bb40d933766, type: 2}
  mass_gr_explosion: {fileID: 100012, guid: c2531b51dea12b142b8eef2a5a4ee22c, type: 2}
  d_gr_explosion: {fileID: 100008, guid: 1144918525b648a4bb400e4a4a36939d, type: 2}
  short_gr_explosion: {fileID: 100010, guid: 9939a74b8cf055840a9cfd0f05557f07, type: 2}
  space_explosion: {fileID: 100010, guid: 43f1c6999e37f5846a45fc5177121b16, type: 2}
  short_space_explosion: {fileID: 100010, guid: 99affb43b5b910c4a824ebdd6c559909,
    type: 2}
  circle_explosion: {fileID: 100002, guid: 4011e3c5647bca847b5e2d66d72cf7aa, type: 2}
  nuke_explosion: {fileID: 100006, guid: 201bf2c9d3278584a9a554c15f0dd12e, type: 2}
  flash_explosion: {fileID: 100030, guid: 054f78f0057ef5948b4c4a23b473b99d, type: 2}
  huge_explosion: {fileID: 100086, guid: d8a03b742ee62a94aa32c49cb039cee7, type: 2}
  smoke_explosion: {fileID: 100088, guid: 41c98e9327814114cb597e13e5c19a9d, type: 2}
--- !u!114 &1778811843
MonoBehaviour:
  m_ObjectHideFlags: 0
  m_PrefabParentObject: {fileID: 0}
  m_PrefabInternal: {fileID: 0}
  m_GameObject: {fileID: 1778811836}
  m_Enabled: 1
  m_EditorHideFlags: 0
  m_Script: {fileID: 11500000, guid: 287f987ffa113fd4eb53f1736fbd493e, type: 3}
  m_Name: 
  m_EditorClassIdentifier: 
  degrees: {x: 5, y: 3}
  range: 1
--- !u!1001 &2070685344
Prefab:
  m_ObjectHideFlags: 0
  serializedVersion: 2
  m_Modification:
    m_TransformParent: {fileID: 0}
    m_Modifications:
    - target: {fileID: 4784801776498272, guid: e34a341a0f802a143bdfb5fb5d7956fe, type: 2}
      propertyPath: m_LocalPosition.x
      value: -0.52313936
      objectReference: {fileID: 0}
    - target: {fileID: 4784801776498272, guid: e34a341a0f802a143bdfb5fb5d7956fe, type: 2}
      propertyPath: m_LocalPosition.y
      value: 3.74
      objectReference: {fileID: 0}
    - target: {fileID: 4784801776498272, guid: e34a341a0f802a143bdfb5fb5d7956fe, type: 2}
      propertyPath: m_LocalPosition.z
      value: -11.8868685
      objectReference: {fileID: 0}
    - target: {fileID: 4784801776498272, guid: e34a341a0f802a143bdfb5fb5d7956fe, type: 2}
      propertyPath: m_LocalRotation.x
      value: 0
      objectReference: {fileID: 0}
    - target: {fileID: 4784801776498272, guid: e34a341a0f802a143bdfb5fb5d7956fe, type: 2}
      propertyPath: m_LocalRotation.y
      value: 0
      objectReference: {fileID: 0}
    - target: {fileID: 4784801776498272, guid: e34a341a0f802a143bdfb5fb5d7956fe, type: 2}
      propertyPath: m_LocalRotation.z
      value: 0
      objectReference: {fileID: 0}
    - target: {fileID: 4784801776498272, guid: e34a341a0f802a143bdfb5fb5d7956fe, type: 2}
      propertyPath: m_LocalRotation.w
      value: 1
      objectReference: {fileID: 0}
    - target: {fileID: 4784801776498272, guid: e34a341a0f802a143bdfb5fb5d7956fe, type: 2}
      propertyPath: m_RootOrder
      value: 1
      objectReference: {fileID: 0}
    - target: {fileID: 4014697024622288, guid: e34a341a0f802a143bdfb5fb5d7956fe, type: 2}
      propertyPath: m_RootOrder
      value: 1
      objectReference: {fileID: 0}
    - target: {fileID: 1682926024756018, guid: e34a341a0f802a143bdfb5fb5d7956fe, type: 2}
      propertyPath: m_IsActive
      value: 1
      objectReference: {fileID: 0}
    - target: {fileID: 4014697024622288, guid: e34a341a0f802a143bdfb5fb5d7956fe, type: 2}
      propertyPath: m_LocalScale.x
      value: 1
      objectReference: {fileID: 0}
    - target: {fileID: 4014697024622288, guid: e34a341a0f802a143bdfb5fb5d7956fe, type: 2}
      propertyPath: m_LocalScale.y
      value: 1
      objectReference: {fileID: 0}
    - target: {fileID: 4014697024622288, guid: e34a341a0f802a143bdfb5fb5d7956fe, type: 2}
      propertyPath: m_LocalScale.z
      value: 1
      objectReference: {fileID: 0}
    m_RemovedComponents:
    - {fileID: 65171990309209872, guid: e34a341a0f802a143bdfb5fb5d7956fe, type: 2}
  m_ParentPrefab: {fileID: 100100000, guid: e34a341a0f802a143bdfb5fb5d7956fe, type: 2}
  m_IsPrefabParent: 0
--- !u!4 &2070685345 stripped
Transform:
  m_PrefabParentObject: {fileID: 4127190424903480, guid: e34a341a0f802a143bdfb5fb5d7956fe,
    type: 2}
  m_PrefabInternal: {fileID: 2070685344}
--- !u!1 &2076911365
GameObject:
  m_ObjectHideFlags: 0
  m_PrefabParentObject: {fileID: 0}
  m_PrefabInternal: {fileID: 0}
  serializedVersion: 5
  m_Component:
  - component: {fileID: 2076911366}
  m_Layer: 0
  m_Name: mass_spawn
  m_TagString: Untagged
  m_Icon: {fileID: 0}
  m_NavMeshLayer: 0
  m_StaticEditorFlags: 0
  m_IsActive: 1
--- !u!4 &2076911366
Transform:
  m_ObjectHideFlags: 0
  m_PrefabParentObject: {fileID: 0}
  m_PrefabInternal: {fileID: 0}
  m_GameObject: {fileID: 2076911365}
  m_LocalRotation: {x: 0.7071068, y: 0, z: 0, w: -0.7071068}
  m_LocalPosition: {x: -0.16394043, y: 2.9708867, z: -12.810656}
  m_LocalScale: {x: 1, y: 1, z: 1}
  m_Children: []
  m_Father: {fileID: 0}
  m_RootOrder: 8
  m_LocalEulerAnglesHint: {x: 0, y: 0, z: 0}
--- !u!1001 &2110664524
Prefab:
  m_ObjectHideFlags: 0
  serializedVersion: 2
  m_Modification:
    m_TransformParent: {fileID: 0}
    m_Modifications:
    - target: {fileID: 400006, guid: 54d072b2daabb384c9bf3bfe9739ca63, type: 2}
      propertyPath: m_LocalPosition.x
      value: -1.5315102
      objectReference: {fileID: 0}
    - target: {fileID: 400006, guid: 54d072b2daabb384c9bf3bfe9739ca63, type: 2}
      propertyPath: m_LocalPosition.y
      value: 2.760622
      objectReference: {fileID: 0}
    - target: {fileID: 400006, guid: 54d072b2daabb384c9bf3bfe9739ca63, type: 2}
      propertyPath: m_LocalPosition.z
      value: -12.516186
      objectReference: {fileID: 0}
    - target: {fileID: 400006, guid: 54d072b2daabb384c9bf3bfe9739ca63, type: 2}
      propertyPath: m_LocalRotation.x
      value: 0
      objectReference: {fileID: 0}
    - target: {fileID: 400006, guid: 54d072b2daabb384c9bf3bfe9739ca63, type: 2}
      propertyPath: m_LocalRotation.y
      value: 0
      objectReference: {fileID: 0}
    - target: {fileID: 400006, guid: 54d072b2daabb384c9bf3bfe9739ca63, type: 2}
      propertyPath: m_LocalRotation.z
      value: 0
      objectReference: {fileID: 0}
    - target: {fileID: 400006, guid: 54d072b2daabb384c9bf3bfe9739ca63, type: 2}
      propertyPath: m_LocalRotation.w
      value: 1
      objectReference: {fileID: 0}
    - target: {fileID: 400006, guid: 54d072b2daabb384c9bf3bfe9739ca63, type: 2}
      propertyPath: m_RootOrder
      value: 4
      objectReference: {fileID: 0}
    - target: {fileID: 19800002, guid: 54d072b2daabb384c9bf3bfe9739ca63, type: 2}
      propertyPath: randomSeed
      value: -671953075
      objectReference: {fileID: 0}
    - target: {fileID: 19800002, guid: 54d072b2daabb384c9bf3bfe9739ca63, type: 2}
      propertyPath: InitialModule.startRotationX.minMaxState
      value: 3
      objectReference: {fileID: 0}
    - target: {fileID: 19800002, guid: 54d072b2daabb384c9bf3bfe9739ca63, type: 2}
      propertyPath: InitialModule.startRotationY.minMaxState
      value: 3
      objectReference: {fileID: 0}
    - target: {fileID: 400002, guid: 54d072b2daabb384c9bf3bfe9739ca63, type: 2}
      propertyPath: m_LocalPosition.x
      value: -4.85
      objectReference: {fileID: 0}
    m_RemovedComponents: []
  m_ParentPrefab: {fileID: 100100000, guid: 54d072b2daabb384c9bf3bfe9739ca63, type: 2}
  m_IsPrefabParent: 0
