%YAML 1.1
%TAG !u! tag:unity3d.com,2011:
--- !u!1045 &1
EditorBuildSettings:
  m_ObjectHideFlags: 0
  serializedVersion: 2
  m_Scenes:
  - enabled: 1
    path: Assets/_project/_team/Stephane/Scenes/GameMenu.unity
    guid: c17003dfb4417294ea714d71eef5124b
  - enabled: 1
    path: Assets/_project/_team/Stephane/Scenes/MainMenu.unity
    guid: 591c75ad27a61134795d8c11f60987d5
  - enabled: 1
    path: Assets/_Team/Basile/Scene/StartMenu.unity
    guid: 9b92b4a34cebaa74f9dcfb951194f191
  - enabled: 1
    path: Assets/_Team/Renaud/Lvl1v3.unity
    guid: 4118d72d17f4aac4b88150dcaaafe2ae
  - enabled: 1
    path: Assets/_Team/Basile/Scene/LvlBasile.unity
    guid: 312fe0579a69cf14aa5be77687c1b723
  - enabled: 1
    path: Assets/_project/_team/Samy/Scenes/09-04-18_NewFire.unity
    guid: 6b0274b41709cf34fa5bdb65a1e2ae35
  - enabled: 1
    path: Assets/_project/_team/Stephane/Scenes/MenuLose.unity
    guid: 90f03f6e1f758f745ac5dea8270c3fab
